[gd_scene load_steps=8 format=2]

[ext_resource path="res://addons/jamcountdown/countdown.gd" type="Script" id=1]
[ext_resource path="res://addons/jamcountdown/Roboto-Bold.ttf" type="DynamicFontData" id=2]
[ext_resource path="res://addons/jamcountdown/Roboto-Light.ttf" type="DynamicFontData" id=3]

[sub_resource type="StyleBoxFlat" id=1]
content_margin_left = 5.0
content_margin_right = 5.0
bg_color = Color( 0, 0, 0, 1 )
border_width_left = 1
border_width_top = 1
border_width_right = 1
border_width_bottom = 1
border_color = Color( 1, 1, 1, 0.882353 )
corner_radius_top_left = 8
corner_radius_top_right = 8
corner_radius_bottom_right = 8
corner_radius_bottom_left = 8
shadow_color = Color( 0, 0, 0, 0.34902 )
shadow_size = 3
shadow_offset = Vector2( 0, 2 )

[sub_resource type="Theme" id=2]
PanelContainer/styles/panel = SubResource( 1 )

[sub_resource type="DynamicFont" id=3]
size = 15
font_data = ExtResource( 3 )

[sub_resource type="DynamicFont" id=4]
font_data = ExtResource( 2 )

[node name="Countdown" type="PanelContainer"]
anchor_left = 1.0
anchor_right = 1.0
margin_left = -198.0
margin_bottom = 24.0
grow_horizontal = 0
size_flags_horizontal = 5
size_flags_vertical = 5
theme = SubResource( 2 )
script = ExtResource( 1 )
jam_title = "Roll of the dice"
year = 2022
month = 7
day = 17
hour = 13
minute = 0

[node name="HBoxContainer" type="HBoxContainer" parent="."]
margin_left = 5.0
margin_top = 1.0
margin_right = 193.0
margin_bottom = 23.0
grow_horizontal = 0
size_flags_horizontal = 5
size_flags_vertical = 5
alignment = 1
__meta__ = {
"_edit_use_anchors_": false
}

[node name="TitleLabel" type="Label" parent="HBoxContainer"]
margin_left = 58.0
margin_right = 126.0
margin_bottom = 22.0
size_flags_horizontal = 5
size_flags_vertical = 5
custom_colors/font_color = Color( 1, 1, 1, 1 )
custom_fonts/font = SubResource( 3 )
text = "GameJam"
__meta__ = {
"_edit_use_anchors_": false
}

[node name="CountdownLabel" type="Label" parent="HBoxContainer"]
margin_left = 130.0
margin_right = 130.0
margin_bottom = 22.0
grow_horizontal = 0
size_flags_horizontal = 5
size_flags_vertical = 3
custom_colors/font_color = Color( 1, 1, 1, 1 )
custom_fonts/font = SubResource( 4 )
__meta__ = {
"_edit_use_anchors_": false
}
