[gd_scene load_steps=5 format=2]

[ext_resource path="res://properties/pickable.gd" type="Script" id=1]
[ext_resource path="res://addons/godot_sfxr/SfxrStreamPlayer2D.gd" type="Script" id=2]

[sub_resource type="RectangleShape2D" id=1]
extents = Vector2( 8, 8 )

[sub_resource type="AudioStreamSample" id=2]
data = PoolByteArray( 131, 150, 169, 188, 207, 226, 244, 7, 24, 42, 59, 76, 92, 108, 118, 103, 85, 68, 51, 34, 18, 2, 241, 226, 210, 195, 181, 166, 152, 158, 174, 189, 204, 219, 234, 248, 7, 21, 34, 47, 60, 73, 86, 90, 77, 64, 51, 38, 25, 12, 255, 243, 231, 220, 209, 198, 188, 178, 185, 197, 208, 219, 230, 241, 251, 7, 17, 27, 37, 47, 57, 67, 69, 59, 49, 39, 29, 19, 9, 254, 244, 234, 224, 214, 204, 194, 186, 192, 203, 213, 223, 233, 243, 253, 8, 18, 28, 38, 48, 58, 68, 68, 58, 48, 38, 28, 18, 8, 253, 243, 233, 223, 213, 203, 193, 186, 194, 204, 214, 224, 234, 244, 254, 9, 19, 29, 39, 49, 59, 69, 66, 56, 46, 36, 26, 16, 6, 251, 241, 232, 222, 212, 202, 192, 187, 196, 206, 215, 225, 235, 245, 255, 10, 20, 30, 40, 50, 60, 69, 65, 55, 45, 35, 25, 15, 5, 250, 240, 230, 221, 211, 201, 191, 188, 197, 207, 217, 227, 237, 247, 1, 11, 21, 31, 41, 51, 61, 69, 63, 53, 43, 33, 24, 14, 4, 249, 239, 229, 219, 210, 200, 190, 189, 199, 208, 218, 228, 238, 248, 3, 12, 22, 32, 42, 52, 62, 69, 62, 52, 42, 32, 22, 12, 3, 248, 238, 228, 218, 209, 199, 189, 190, 200, 210, 220, 230, 239, 249, 4, 14, 23, 33, 43, 53, 62, 68, 60, 50, 40, 31, 21, 11, 1, 247, 237, 227, 217, 208, 198, 189, 192, 202, 211, 221, 231, 241, 250, 5, 15, 25, 34, 44, 54, 63, 68, 58, 49, 39, 29, 20, 10, 255, 245, 236, 226, 216, 207, 197, 188, 193, 203, 213, 223, 232, 242, 252, 6, 16, 26, 35, 45, 55, 64, 67, 57, 47, 38, 28, 18, 9, 254, 244, 235, 225, 215, 206, 196, 188, 195, 205, 214, 224, 234, 243, 253, 7, 17, 27, 36, 46, 56, 65, 65, 55, 46, 36, 27, 17, 7, 253, 243, 234, 224, 214, 205, 195, 189, 196, 206, 216, 225, 235, 244, 254, 9, 18, 28, 37, 47, 56, 66, 64, 54, 44, 35, 25, 16, 6, 252, 242, 232, 223, 213, 204, 194, 189, 198, 207, 217, 227, 236, 246, 255, 10, 19, 29, 38, 48, 57, 66, 62, 53, 43, 33, 24, 14, 5, 250, 241, 231, 222, 212, 203, 193, 190, 199, 209, 218, 228, 237, 247, 1, 11, 20, 30, 39, 49, 58, 66, 61, 51, 42, 32, 23, 13, 4, 249, 240, 230, 221, 211, 202, 193, 191, 201, 210, 220, 229, 239, 248, 3, 12, 21, 31, 40, 50, 59, 66, 59, 50, 40, 31, 21, 12, 3, 248, 239, 229, 220, 211, 201, 192, 193, 202, 212, 221, 231, 240, 249, 4, 13, 23, 32, 41, 51, 60, 66, 58, 48, 39, 29, 20, 11, 1, 247, 238, 228, 219, 210, 200, 191, 194, 204, 213, 223, 232, 241, 251, 5, 14, 24, 33, 42, 52, 61, 65, 56, 47, 37, 28, 19, 10, 255, 246, 237, 227, 218, 209, 199, 191, 196, 205, 215, 224, 233, 242, 252, 6, 15, 25, 34, 43, 52, 62, 64, 55, 45, 36, 27, 18, 8, 254, 245, 236, 226, 217, 208, 199, 191, 197, 207, 216, 225, 234, 244, 253, 7, 16, 26, 35, 44, 53, 63, 62, 53, 44, 35, 26, 16, 7, 253, 244, 234, 225, 216, 207, 198, 191, 199, 208, 217, 226, 236, 245, 254, 8, 17, 27, 36, 45, 54, 63, 61, 52, 43, 33, 24, 15, 6, 252, 243, 233, 224, 215, 206, 197, 192, 200, 209, 219, 228, 237, 246, 255, 9, 19, 28, 37, 46, 55, 64, 60, 50, 41, 32, 23, 14, 5, 251, 242, 232, 223, 214, 205, 196, 193, 202, 211, 220, 229, 238, 247, 1, 10, 20, 29, 38, 47, 56, 64, 58, 49, 40, 31, 22, 13, 4, 250, 240, 231, 222, 213, 204, 195, 194, 203, 212, 221, 230, 239, 248, 2, 12, 21, 30, 39, 48, 57, 63, 57, 48, 39, 30, 21, 11, 2, 248, 239, 230, 221, 212, 203, 194, 196, 205, 214, 223, 232, 241, 250, 4, 13, 22, 31, 40, 49, 58, 63, 55, 46, 37, 28, 19, 10, 1, 247, 238, 229, 220, 212, 203, 194, 197, 206, 215, 224, 233, 242, 251, 5, 14, 23, 32, 40, 49, 58, 62, 54, 45, 36, 27, 18, 9, 255, 246, 237, 228, 220, 211, 202, 194, 198, 207, 216, 225, 234, 243, 252, 6, 15, 24, 32, 41, 50, 59, 61, 52, 44, 35, 26, 17, 8, 254, 245, 236, 227, 219, 210, 201, 194, 200, 209, 218, 226, 235, 244, 253, 7, 16, 25, 33, 42, 51, 60, 60, 51, 42, 33, 24, 16, 7, 253, 244, 235, 227, 218, 209, 200, 194, 201, 210, 219, 228, 237, 245, 254, 8, 17, 26, 34, 43, 52, 61, 58, 50, 41, 32, 23, 14, 6, 252, 243, 234, 226, 217, 208, 199, 195, 203, 211, 220, 229, 238, 246, 255, 9, 18, 26, 35, 44, 53, 61, 57, 48, 40, 31, 22, 13, 5, 251, 242, 233, 225, 216, 207, 199, 196, 204, 213, 221, 230, 239, 248, 1, 10, 19, 27, 36, 45, 53, 61, 56, 47, 38, 30, 21, 12, 3, 250, 241, 232, 224, 215, 206, 198, 197, 205, 214, 223, 231, 240, 249, 2, 11, 20, 28, 37, 46, 54, 61, 54, 46, 37, 28, 20, 11, 2, 249, 240, 232, 223, 214, 206, 197, 198, 207, 215, 224, 233, 241, 250, 3, 12, 21, 29, 38, 46, 55, 60, 53, 44, 36, 27, 18, 10, 1, 248, 239, 231, 222, 213, 205, 197, 200, 208, 217, 225, 234, 242, 251, 5, 13, 22, 30, 39, 47, 56, 59, 51, 43, 34, 26, 17, 9, 255, 247, 238, 230, 221, 213, 204, 196, 201, 209, 218, 227, 235, 244, 252, 6, 14, 23, 31, 40, 48, 57, 58, 50, 42, 33, 25, 16, 8, 254, 246, 237, 229, 220, 212, 203, 196, 202, 211, 219, 228, 236, 245, 253, 7, 15, 23, 32, 40, 49, 57, 57, 49, 40, 32, 23, 15, 7, 253, 245, 236, 228, 219, 211, 203, 197, 204, 212, 221, 229, 237, 246, 254, 8, 16, 24, 33, 41, 50, 58, 56, 47, 39, 31, 22, 14, 5, 252, 244, 235, 227, 219, 210, 202, 197, 205, 213, 222, 230, 239, 247, 255, 9, 17, 25, 34, 42, 50, 58, 54, 46, 38, 29, 21, 13, 4, 251, 243, 234, 226, 218, 209, 201, 198, 206, 215, 223, 231, 240, 248, 1, 10, 18, 26, 34, 43, 51, 58, 53, 45, 37, 28, 20, 12, 3, 250, 242, 233, 225, 217, 209, 200, 199, 208, 216, 224, 233, 241, 249, 2, 11, 19, 27, 35, 44, 52, 58, 52, 44, 35, 27, 19, 11, 2, 249, 241, 233, 224, 216, 208, 200, 201, 209, 217, 225, 234, 242, 250, 3, 12, 20, 28, 36, 44, 53, 58, 50, 42, 34, 26, 18, 9, 1, 248, 240, 232, 224, 215, 207, 199, 202, 210, 218, 227, 235, 243, 251, 4, 12, 21, 29, 37, 45, 53, 57, 49, 41, 33, 25, 17, 8, 255, 247, 239, 231, 223, 215, 206, 199, 203, 212, 220, 228, 236, 244, 252, 5, 13, 22, 30, 38, 46, 54, 56, 48, 40, 32, 23, 15, 7, 254, 246, 238, 230, 222, 214, 206, 199, 205, 213, 221, 229, 237, 245, 253, 6, 14, 22, 30, 39, 47, 55, 55, 47, 38, 30, 22, 14, 6, 253, 245, 237, 229, 221, 213, 205, 200, 206, 214, 222, 230, 238, 246, 254, 7, 15, 23, 31, 39, 47, 55, 53, 45, 37, 29, 21, 13, 5, 252, 244, 236, 228, 220, 212, 204, 200, 207, 215, 223, 231, 239, 247, 255, 8, 16, 24, 32, 40, 48, 55, 52, 44, 36, 28, 20, 12, 4, 251, 243, 235, 227, 220, 212, 204, 201, 209, 217, 225, 232, 240, 248, 1, 9, 17, 25, 33, 41, 49, 55, 51, 43, 35, 27, 19, 11, 3, 250, 242, 235, 227, 219, 211, 203, 202, 210, 218, 226, 234, 241, 249, 2, 10, 18, 26, 34, 42, 49, 55, 49, 41, 34, 26, 18, 10, 2, 249, 242, 234, 226, 218, 210, 202, 203, 211, 219, 227, 235, 243, 250, 3, 11, 19, 27, 34, 42, 50, 55, 48, 40, 32, 25, 17, 9, 1, 248, 241, 233, 225, 217, 210, 202, 205, 212, 220, 228, 236, 244, 251, 4, 12, 20, 27, 35, 43, 51, 54, 47, 39, 31, 23, 16, 8, 255, 247, 240, 232, 224, 217, 209, 202, 206, 214, 221, 229, 237, 245, 252, 5, 13, 21, 28, 36, 44, 51, 53, 46, 38, 30, 22, 15, 7, 254, 247, 239, 231, 224, 216, 208, 202, 207, 215, 223, 230, 238, 246, 253, 6, 14, 21, 29, 37, 44, 52, 52, 44, 37, 29, 21, 14, 6, 253, 246, 238, 230, 223, 215, 208, 202, 209, 216, 224, 231, 239, 247, 254, 7, 15, 22, 30, 37, 45, 52, 51, 43, 35, 28, 20, 13, 5, 252, 245, 237, 230, 222, 214, 207, 203, 210, 217, 225, 233, 240, 248, 255, 8, 15, 23, 31, 38, 46, 53, 49, 42, 34, 27, 19, 12, 4, 251, 244, 236, 229, 221, 214, 206, 204, 211, 219, 226, 234, 241, 249, 1, 9, 16, 24, 31, 39, 46, 53, 48, 41, 33, 26, 18, 11, 3, 251, 243, 236, 228, 221, 213, 206, 205, 212, 220, 227, 235, 242, 250, 2, 10, 17, 25, 32, 39, 47, 53, 47, 39, 32, 24, 17, 10, 2, 250, 242, 235, 227, 220, 212, 205, 206, 213, 221, 228, 236, 243, 251, 3, 10, 18, 25, 33, 40, 48, 52, 46, 38, 31, 23, 16, 9, 1, 249, 241, 234, 227, 219, 212, 205, 207, 215, 222, 229, 237, 244, 252, 4, 11, 19, 26, 33, 41, 48, 51, 44, 37, 30, 22, 15, 8, 255, 248, 241, 233, 226, 219, 211, 205, 208, 216, 223, 231, 238, 245, 253, 5, 12, 20, 27, 34, 41, 49, 50, 43, 36, 29, 21, 14, 7, 254, 247, 240, 232, 225, 218, 211, 205, 210, 217, 224, 232, 239, 246, 253, 6, 13, 20, 28, 35, 42, 49, 49, 42, 35, 27, 20, 13, 6, 253, 246, 239, 232, 224, 217, 210, 205, 211, 218, 225, 233, 240, 247, 254, 7, 14, 21, 28, 35, 43, 50, 48, 41, 34, 26, 19, 12, 5, 253, 245, 238, 231, 224, 217, 209, 206, 212, 219, 227, 234, 241, 248, 255, 7, 15, 22, 29, 36, 43, 50, 47, 40, 33, 25, 18, 11, 4, 252, 245, 237, 230, 223, 216, 209, 206, 213, 220, 228, 235, 242, 249, 1, 8, 15, 23, 30, 37, 44, 50, 46, 39, 31, 24, 17, 10, 3, 251, 244, 237, 230, 222, 215, 208, 207, 215, 222, 229, 236, 243, 250, 2, 9, 16, 23, 30, 37, 44, 50, 44, 37, 30, 23, 16, 9, 2, 250, 243, 236, 229, 222, 215, 208, 209, 216, 223, 230, 237, 244, 251, 3, 10, 17, 48, 40, 30, 20, 10, 1, 246, 236, 226, 216, 208, 213, 223, 232, 242, 252, 7, 16, 26, 36, 46, 47, 37, 27, 18, 8, 253, 243, 234, 224, 214, 208, 215, 225, 235, 245, 254, 9, 19, 28, 38, 47, 44, 34, 25, 15, 5, 251, 241, 231, 222, 212, 209, 218, 228, 237, 247, 2, 11, 21, 31, 40, 48, 41, 32, 22, 13, 3, 248, 239, 229, 219, 210, 211, 221, 230, 240, 250, 4, 14, 23, 33, 42, 48, 39, 29, 20, 10, 1, 246, 236, 227, 217, 209, 214, 223, 233, 242, 252, 6, 16, 26, 35, 45, 46, 36, 27, 17, 8, 253, 244, 234, 225, 215, 209, 216, 226, 235, 245, 254, 9, 18, 28, 37, 46, 43, 34, 24, 15, 5, 251, 241, 232, 222, 213, 210, 219, 228, 238, 247, 2, 11, 21, 30, 39, 47, 41, 31, 22, 12, 3, 248, 239, 230, 220, 211, 212, 221, 231, 240, 250, 4, 13, 23, 32, 42, 47, 38, 29, 19, 10, 1, 246, 237, 227, 218, 210, 215, 224, 233, 243, 252, 6, 16, 25, 34, 44, 45, 36, 26, 17, 7, 253, 244, 235, 225, 216, 210, 217, 226, 236, 245, 254, 9, 18, 27, 37, 46, 42, 33, 24, 14, 5, 251, 242, 232, 223, 214, 211, 220, 229, 238, 247, 2, 11, 20, 29, 39, 46, 40, 31, 21, 12, 3, 249, 239, 230, 221, 212, 213, 222, 231, 241, 250, 4, 13, 22, 32, 41, 46, 37, 28, 19, 10, 1, 246, 237, 228, 219, 211, 215, 225, 234, 243, 252, 6, 15, 25, 34, 43, 44, 35, 26, 16, 7, 253, 244, 235, 226, 217, 210, 218, 227, 236, 245, 254, 8, 18, 27, 36, 45, 41, 32, 23, 14, 5, 251, 242, 233, 224, 215, 212, 220, 229, 239, 248, 2, 11, 20, 29, 38, 45, 39, 30, 21, 12, 3, 249, 240, 231, 222, 213, 214, 223, 232, 241, 250, 4, 13, 22, 31, 40, 45, 36, 27, 18, 9, 1, 247, 238, 229, 220, 212, 216, 225, 234, 243, 252, 6, 15, 24, 33, 42, 43, 34, 25, 16, 7, 253, 244, 235, 226, 218, 211, 219, 228, 237, 245, 254, 8, 17, 26, 35, 44, 41, 32, 23, 14, 5, 251, 242, 233, 224, 216, 213, 221, 230, 239, 248, 2, 10, 19, 28, 37, 44, 38, 29, 20, 12, 3, 249, 240, 231, 222, 214, 215, 224, 232, 241, 250, 4, 13, 21, 30, 39, 44, 36, 27, 18, 9, 1, 247, 238, 229, 220, 212, 217, 226, 235, 243, 252, 6, 15, 23, 32, 41, 42, 33, 25, 16, 7, 253, 245, 236, 227, 218, 212, 220, 228, 237, 246, 254, 8, 17, 26, 34, 43, 40, 31, 22, 14, 5, 251, 242, 234, 225, 216, 213, 222, 231, 239, 248, 2, 10, 19, 28, 36, 43, 37, 29, 20, 11, 3, 249, 240, 232, 223, 215, 216, 224, 233, 242, 250, 4, 12, 21, 30, 38, 43, 35, 26, 18, 9, 1, 247, 238, 230, 221, 213, 218, 227, 235, 244, 252, 6, 14, 23, 32, 40, 41, 33, 24, 15, 7, 253, 245, 236, 228, 219, 213, 220, 229, 237, 246, 254, 8, 16, 25, 33, 42, 39, 30, 22, 13, 5, 251, 243, 234, 226, 217, 214, 223, 231, 240, 248, 2, 10, 18, 27, 35, 42, 36, 28, 20, 11, 3, 249, 241, 232, 224, 215, 217, 225, 233, 242, 250, 4, 12, 20, 29, 37, 42, 34, 26, 17, 9, 1, 247, 239, 230, 222, 214, 219, 227, 236, 244, 252, 6, 14, 22, 31, 39, 40, 32, 23, 15, 7, 253, 245, 237, 228, 220, 214, 221, 229, 238, 246, 254, 8, 16, 24, 33, 41, 38, 30, 21, 13, 5, 251, 243, 235, 227, 218, 215, 223, 232, 240, 248, 2, 10, 18, 26, 35, 41, 36, 27, 19, 11, 3, 249, 241, 233, 225, 216, 217, 226, 234, 242, 250, 4, 12, 20, 28, 36, 41, 33, 25, 17, 9, 255, 247, 239, 231, 223, 215, 220, 228, 236, 244, 252, 6, 14, 22, 30, 38, 39, 31, 23, 15, 7, 253, 245, 237, 229, 221, 215, 222, 230, 238, 246, 255, 8, 16, 24, 32, 40, 37, 29, 21, 13, 5, 251, 243, 235, 227, 219, 216, 224, 232, 240, 248, 2, 10, 18, 26, 34, 40, 35, 27, 19, 11, 3, 249, 241, 233, 225, 217, 218, 226, 234, 242, 251, 4, 12, 20, 28, 36, 40, 33, 25, 17, 9, 255, 248, 240, 232, 224, 216, 221, 229, 237, 245, 253, 6, 13, 21, 29, 37, 38, 30, 22, 14, 6, 254, 246, 238, 230, 222, 216, 223, 231, 239, 247, 255, 7, 15, 23, 31, 39, 36, 28, 20, 12, 4, 252, 244, 236, 228, 220, 217, 225, 233, 241, 249, 2, 9, 17, 25, 33, 39, 34, 26, 18, 10, 2, 250, 242, 234, 226, 218, 219, 227, 235, 243, 251, 3, 11, 19, 27, 35, 39, 32, 24, 16, 8, 255, 248, 240, 232, 224, 217, 221, 229, 237, 245, 253, 5, 13, 21, 29, 36, 37, 30, 22, 14, 6, 254, 246, 238, 230, 223, 217, 224, 231, 239, 247, 255, 7, 15, 23, 30, 38, 35, 28, 20, 12, 4, 252, 244, 236, 229, 221, 218, 226, 233, 241, 249, 1, 9, 17, 24, 32, 38, 33, 25, 18, 10, 2, 250, 242, 234, 227, 219, 220, 228, 235, 243, 251, 3, 11, 19, 26, 34, 38, 31, 23, 16, 8, 255, 248, 240, 233, 225, 218, 222, 230, 237, 245, 253, 5, 13, 20, 28, 36, 36, 29, 21, 14, 6, 254, 246, 239, 231, 223, 218, 224, 232, 239, 247, 255, 7, 15, 22, 30, 37, 34, 27, 19, 12, 4, 252, 244, 237, 229, 222, 219, 226, 234, 241, 249, 1, 9, 16, 24, 31, 37, 32, 25, 17, 10, 2, 250, 242, 235, 228, 220, 221, 229, 236, 243, 251, 3, 11, 18, 26, 33, 37, 30, 23, 15, 8, 255, 248, 241, 233, 226, 219, 223, 231, 238, 245, 253, 5, 13, 20, 27, 35, 36, 28, 21, 13, 6, 254, 246, 239, 232, 224, 219, 225, 233, 240, 247, 255, 7, 14, 22, 29, 36, 33, 26, 19, 11, 4, 252, 245, 237, 230, 223, 220, 227, 235, 242, 249, 1, 9, 16, 23, 31, 36, 31, 24, 17, 10, 2, 250, 243, 236, 228, 221, 222, 229, 236, 244, 251, 3, 10, 18, 25, 32, 36, 29, 22, 15, 8, 255, 248, 241, 234, 227, 220, 224, 231, 238, 246, 253, 5, 12, 19, 27, 34, 35, 27, 20, 13, 6, 254, 247, 239, 232, 225, 220, 226, 233, 240, 247, 255, 7, 14, 21, 28, 35, 33, 25, 18, 11, 4, 252, 245, 238, 231, 224, 221, 228, 235, 242, 249, 1, 8, 16, 23, 30, 35, 31, 23, 16, 9, 2, 250, 243, 236, 229, 222, 223, 230, 237, 244, 251, 3, 10, 17, 24, 31, 35, 29, 22, 15, 8, 255, 248, 241, 234, 227, 221, 225, 232, 239, 246, 253, 5, 12, 19, 26, 33, 34, 27, 20, 13, 6, 254, 247, 240, 233, 226, 221, 227, 234, 241, 248, 255, 7, 14, 20, 27, 34, 32, 25, 18, 11, 4, 252, 245, 238, 231, 224, 222, 229, 236, 243, 249, 1, 8, 15, 22, 29, 34, 30, 23, 16, 9, 2, 250, 243, 237, 230, 223, 224, 231, 238, 244, 251, 3, 10, 17, 24, 30, 34, 28, 21, 14, 7, 255, 249, 242, 235, 228, 222, 226, 233, 239, 246, 253, 5, 12, 18, 25, 32, 33, 26, 19, 12, 6, 254, 247, 240, 234, 227, 222, 228, 234, 241, 248, 255, 6, 13, 20, 27, 33, 31, 24, 17, 11, 4, 252, 245, 239, 232, 225, 223, 230, 236, 243, 250, 1, 8, 15, 21, 28, 34, 29, 22, 16, 9, 2, 250, 244, 237, 231, 224, 225, 231, 238, 245, 251, 3, 10, 16, 23, 30, 33, 27, 20, 14, 7, 255, 249, 242, 236, 229, 223, 227, 233, 240, 246, 253, 5, 11, 18, 24, 31, 32, 25, 19, 12, 5, 254, 247, 241, 234, 228, 223, 228, 235, 242, 248, 255, 6, 13, 19, 26, 32, 30, 23, 17, 10, 4, 252, 246, 239, 233, 226, 224, 230, 237, 243, 250, 1, 8, 14, 21, 27, 33, 28, 22, 15, 9, 2, 251, 244, 238, 231, 225, 226, 232, 239, 245, 251, 3, 9, 16, 22, 29, 32, 26, 20, 13, 7, 255, 249, 243, 236, 230, 224, 227, 234, 240, 247, 253, 5, 11, 17, 24, 30, 31, 24, 18, 12, 5, 254, 248, 241, 235, 228, 224, 229, 236, 242, 248, 255, 6, 12, 19, 25, 31, 29, 23, 16, 10, 4, 252, 246, 240, 233, 227, 225, 231, 237, 244, 250, 1, 8, 14, 20, 26, 32, 27, 21, 15, 8, 2, 251, 245, 238, 232, 226, 227, 233, 239, 245, 252, 3, 9, 15, 22, 28, 31, 25, 19, 13, 7, 255, 249, 243, 237, 231, 225, 228, 235, 241, 247, 253, 4, 11, 17, 23, 29, 30, 24, 18, 11, 5, 254, 248, 242, 235, 229, 225, 230, 236, 242, 249, 255, 6, 12, 18, 24, 30, 28, 22, 16, 10, 4, 252, 246, 240, 234, 228, 226, 232, 238, 244, 250, 1, 7, 13, 20, 26, 31, 26, 20, 14, 8, 2, 251, 245, 239, 233, 227, 227, 234, 240, 246, 252, 3, 9, 15, 21, 27, 30, 25, 19, 13, 7, 255, 249, 243, 237, 231, 226, 229, 235, 241, 247, 253, 4, 10, 16, 22, 28, 29, 23, 17, 11, 5, 254, 248, 242, 236, 230, 226, 231, 237, 243, 249, 255, 6, 12, 18, 24, 29, 27, 21, 15, 9, 3, 253, 247, 241, 235, 229, 227, 233, 238, 244, 250, 1, 7, 13, 19, 25, 30, 26, 20, 14, 8, 2, 251, 245, 239, 233, 228, 228, 234, 240, 246, 252, 3, 9, 14, 20, 26, 29, 24, 18, 12, 6, 255, 250, 244, 238, 232, 227, 230, 236, 242, 248, 253, 4, 10, 16, 22, 27, 28, 22, 16, 11, 5, 254, 248, 242, 237, 231, 227, 232, 237, 243, 249, 255, 6, 11, 17, 23, 28, 26, 21, 15, 9, 3, 253, 247, 241, 235, 230, 228, 233, 239, 245, 251, 1, 7, 13, 18, 24, 29, 25, 19, 13, 8, 2, 251, 246, 240, 234, 229, 229, 235, 241, 246, 252, 3, 8, 14, 20, 25, 28, 23, 17, 12, 6, 255, 250, 244, 239, 233, 228, 231, 237, 242, 248, 253, 4, 10, 15, 21, 26, 27, 22, 16, 10, 5, 254, 249, 243, 237, 232, 228, 232, 238, 244, 249, 255, 5, 11, 17, 22, 27, 26, 20, 14, 9, 3, 253, 247, 242, 236, 231, 229, 234, 240, 245, 251, 1, 7, 12, 18, 23, 28, 24, 18, 13, 7, 2, 251, 246, 240, 235, 229, 230, 236, 241, 247, 252, 3, 8, 13, 19, 24, 27, 22, 17, 11, 6, 255, 250, 245, 239, 234, 229, 232, 237, 243, 248, 253, 4, 9, 15, 20, 26, 26, 21, 15, 10, 5, 254, 249, 243, 238, 233, 229, 233, 239, 244, 249, 255, 5, 11, 16, 21, 26, 25, 19, 14, 9, 3, 253, 247, 242, 237, 231, 230, 235, 240, 246, 251, 1, 6, 12, 17, 22, 27, 23, 18, 12, 7, 2, 252, 246, 241, 236, 230, 231, 236, 242, 247, 252, 2, 8, 13, 18, 24, 26, 22, 16, 11, 6, 255, 250, 245, 240, 235, 230, 233, 238, 243, 248, 254, 4, 9, 14, 19, 25, 25, 20, 15, 10, 4, 254, 249, 244, 239, 233, 230, 234, 239, 244, 250, 255, 5, 10, 15, 21, 26, 24, 19, 13, 8, 3, 253, 248, 243, 237, 232, 231, 236, 241, 246, 251, 1, 6, 11, 17, 22, 26, 22, 17, 12, 7, 2, 252, 247, 241, 236, 231, 232, 237, 242, 247, 252, 2, 7, 13, 18, 23, 25, 21, 16, 11, 6, 255, 250, 245, 240, 235, 231, 233, 238, 244, 249, 254, 4, 9, 14, 19, 24, 24, 19, 14, 9, 4, 254, 249, 244, 239, 234, 231, 235, 240, 245, 250, 255, 5, 10, 15, 20, 25, 23, 18, 13, 8, 3, 253, 248, 243, 238, 233, 232, 236, 241, 246, 251, 1, 6, 11, 16, 21, 25, 21, 16, 12, 7, 2, 252, 247, 242, 237, 232, 233, 238, 243, 248, 252, 2, 7, 12, 17, 22, 24, 20, 15, 10, 5, 255, 251, 246, 241, 236, 232, 234, 239, 244, 249, 254, 4, 8, 13, 18, 23, 23, 19, 14, 9, 4, 254, 249, 245, 240, 235, 232, 236, 241, 245, 250, 255, 5, 9, 14, 19, 24, 22, 17, 12, 8, 3, 253, 248, 244, 239, 234, 233, 237, 242, 247, 251, 1, 6, 11, 15, 20, 24, 21, 16, 11, 6, 2, 252, 247, 243, 238, 233, 234, 238, 243, 248, 253, 2, 7, 12, 16, 21, 23, 19, 15, 10, 5, 255, 251, 246, 242, 237, 233, 235, 240, 244, 249, 254, 3, 8, 13, 17, 22, 22, 18, 13, 9, 4, 254, 250, 245, 241, 236, 233, 237, 241, 246, 250, 255, 5, 9, 14, 18, 23, 21, 17, 12, 7, 3, 253, 249, 244, 240, 235, 233, 238, 242, 247, 252, 1, 6, 10, 15, 19, 23, 20, 15, 11, 6, 2, 252, 248, 243, 239, 234, 235, 239, 244, 248, 253, 2, 7, 11, 16, 20, 22, 18, 14, 9, 5, 255, 251, 247, 242, 238, 234, 236, 240, 245, 249, 254, 3, 8, 12, 17, 21, 22, 17, 13, 8, 4, 254, 250, 246, 241, 237, 234, 237, 242, 246, 251, 255, 4, 9, 13, 17, 22, 20, 16, 11, 7, 3, 253, 249, 245, 240, 236, 234, 239, 243, 247, 252, 1, 5, 10, 14, 18, 22, 19, 15, 10, 6, 2, 252, 248, 244, 239, 235, 236, 240, 244, 249, 253, 2, 6, 11, 15, 19, 22, 18, 13, 9, 5, 255, 251, 247, 243, 238, 235, 237, 241, 245, 250, 254, 3, 7, 12, 16, 20, 21, 16, 12, 8, 4, 254, 250, 246, 242, 238, 235, 238, 242, 247, 251, 255, 4, 8, 13, 17, 21, 19, 15, 11, 7, 3, 253, 249, 245, 241, 237, 235, 239, 244, 248, 252, 1, 5, 9, 13, 18, 21, 18, 14, 10, 6, 2, 252, 248, 244, 240, 236, 236, 241, 245, 249, 253, 2, 6, 10, 14, 18, 21, 17, 13, 9, 5, 255, 251, 247, 243, 239, 236, 238, 242, 246, 250, 254, 3, 7, 11, 15, 19, 20, 16, 12, 8, 4, 254, 250, 246, 242, 238, 236, 239, 243, 247, 251, 255, 4, 8, 12, 16, 20, 18, 14, 10, 6, 2, 254, 250, 246, 242, 238, 236, 240, 244, 248, 252, 1, 5, 9, 13, 17, 20, 17, 13, 9, 5, 1, 253, 249, 245, 241, 237, 237, 241, 245, 249, 253, 2, 6, 10, 14, 18, 20, 16, 12, 8, 4, 255, 252, 248, 244, 240, 237, 239, 242, 246, 250, 254, 3, 7, 11, 14, 18, 19, 15, 11, 7, 3, 255, 251, 247, 243, 239, 237, 240, 244, 247, 251, 255, 4, 8, 11, 15, 19, 18, 14, 10, 6, 2, 254, 250, 246, 242, 239, 237, 241, 245, 248, 252, 1, 5, 8, 12, 16, 19, 16, 13, 9, 5, 1, 253, 249, 245, 242, 238, 238, 242, 246, 249, 253, 2, 6, 9, 13, 17, 19, 15, 12, 8, 4, 255, 252, 248, 244, 241, 237, 239, 243, 247, 250, 254, 3, 6, 10, 14, 17, 18, 14, 11, 7, 3, 255, 251, 247, 244, 240, 238, 241, 244, 248, 251, 255, 4, 7, 11, 14, 18, 17, 13, 9, 6, 2, 254, 250, 247, 243, 239, 238, 242, 245, 249, 252, 1, 5, 8, 12, 15, 18, 16, 12, 8, 5, 1, 253, 249, 246, 242, 239, 239, 243, 246, 250, 253, 2, 5, 9, 12, 16, 18, 14, 11, 7, 4, 255, 252, 249, 245, 242, 238, 240, 244, 247, 251, 254, 3, 6, 10, 13, 16, 17, 13, 10, 7, 3, 255, 251, 248, 244, 241, 239, 241, 245, 248, 252, 255, 3, 7, 10, 14, 17, 16, 12, 9, 6, 2, 254, 250, 247, 244, 240, 239, 242, 246, 249, 253, 1, 4, 8, 11, 14, 17, 15, 11, 8, 5, 1, 253, 250, 246, 243, 240, 240, 243, 247, 250, 253, 2, 5, 8, 12, 15, 17, 14, 10, 7, 4, 255, 252, 249, 246, 242, 239, 241, 244, 248, 251, 254, 3, 6, 9, 12, 16, 16, 13, 9, 6, 3, 255, 251, 248, 245, 242, 240, 242, 245, 249, 252, 255, 3, 7, 10, 13, 16, 15, 12, 8, 5, 2, 254, 251, 248, 244, 241, 240, 243, 246, 250, 253, 1, 4, 7, 10, 14, 16, 14, 11, 8, 4, 1, 253, 250, 247, 244, 241, 241, 244, 247, 250, 254, 2, 5, 8, 11, 14, 16, 13, 10, 7, 4, 255, 252, 249, 246, 243, 240, 242, 245, 248, 251, 254, 2, 5, 9, 12, 15, 15, 12, 9, 6, 3, 255, 252, 249, 246, 243, 241, 243, 246, 249, 252, 255, 3, 6, 9, 12, 15, 14, 11, 8, 5, 2, 254, 251, 248, 245, 242, 241, 244, 247, 250, 253, 1, 4, 7, 10, 13, 15, 13, 10, 7, 4, 1, 253, 250, 247, 244, 242, 242, 245, 248, 251, 254, 2, 5, 7, 10, 13, 15, 12, 9, 6, 3, 255, 253, 250, 247, 244, 241, 243, 246, 249, 252, 254, 2, 5, 8, 11, 14, 14, 11, 8, 5, 3, 255, 252, 249, 246, 243, 242, 244, 247, 249, 252, 255, 3, 6, 9, 11, 14, 13, 10, 8, 5, 2, 254, 251, 249, 246, 243, 242, 245, 248, 250, 253, 1, 4, 6, 9, 12, 14, 12, 9, 7, 4, 1, 253, 251, 248, 245, 242, 243, 246, 248, 251, 254, 2, 4, 7, 10, 12, 14, 11, 9, 6, 3, 255, 253, 250, 247, 245, 242, 244, 246, 249, 252, 255, 2, 5, 8, 10, 13, 13, 10, 8, 5, 2, 255, 252, 250, 247, 244, 242, 245, 247, 250, 253, 255, 3, 5, 8, 11, 13, 12, 10, 7, 4, 2, 254, 252, 249, 246, 244, 243, 245, 248, 251, 253, 1, 3, 6, 9, 11, 13, 11, 9, 6, 4, 1, 254, 251, 248, 246, 243, 244, 246, 249, 251, 254, 1, 4, 6, 9, 12, 13, 11, 8, 6, 3, 255, 253, 251, 248, 246, 243, 245, 247, 250, 252, 255, 2, 5, 7, 9, 12, 12, 10, 7, 5, 2, 255, 252, 250, 248, 245, 243, 245, 248, 250, 253, 255, 3, 5, 7, 10, 12, 11, 9, 7, 4, 2, 254, 252, 249, 247, 245, 244, 246, 249, 251, 253, 1, 3, 6, 8, 10, 12, 11, 8, 6, 3, 1, 254, 251, 249, 247, 244, 245, 247, 249, 252, 254, 1, 4, 6, 8, 11, 12, 10, 7, 5, 3, 255, 253, 251, 249, 246, 244, 245, 248, 250, 252, 255, 2, 4, 6, 9, 11, 11, 9, 7, 4, 2, 255, 253, 250, 248, 246, 244, 246, 248, 251, 253, 255, 2, 5, 7, 9, 11, 10, 8, 6, 4, 2, 254, 252, 250, 248, 246, 245, 247, 249, 251, 254, 1, 3, 5, 7, 9, 11, 10, 8, 5, 3, 1, 254, 252, 250, 247, 245, 246, 248, 250, 252, 254, 1, 3, 6, 8, 10, 11, 9, 7, 5, 3, 255, 253, 251, 249, 247, 245, 246, 248, 251, 253, 255, 2, 4, 6, 8, 10, 10, 8, 6, 4, 2, 255, 253, 251, 249, 247, 245, 247, 249, 251, 253, 255, 2, 4, 6, 8, 10, 10, 8, 6, 4, 2, 254, 252, 250, 248, 246, 246, 248, 250, 252, 254, 1, 3, 5, 7, 9, 10, 9, 7, 5, 3, 1, 254, 252, 250, 248, 246, 246, 248, 250, 252, 254, 1, 3, 5, 7, 9, 10, 8, 6, 4, 2, 255, 254, 252, 250, 248, 246, 247, 249, 251, 253, 255, 2, 4, 5, 7, 9, 9, 8, 6, 4, 2, 255, 253, 251, 249, 248, 246, 248, 250, 252, 253, 255, 2, 4, 6, 8, 9, 9, 7, 5, 3, 1, 255, 253, 251, 249, 247, 247, 249, 250, 252, 254, 1, 3, 4, 6, 8, 9, 8, 6, 4, 3, 1, 254, 252, 251, 249, 247, 247, 249, 251, 253, 254, 1, 3, 5, 6, 8, 9, 7, 6, 4, 2, 255, 254, 252, 250, 249, 247, 248, 250, 251, 253, 255, 2, 3, 5, 7, 8, 8, 7, 5, 3, 2, 255, 253, 252, 250, 248, 247, 249, 250, 252, 254, 255, 2, 4, 5, 7, 8, 8, 6, 5, 3, 1, 255, 253, 251, 250, 248, 248, 249, 251, 253, 254, 1, 2, 4, 5, 7, 8, 7, 6, 4, 2, 1, 254, 253, 251, 250, 248, 248, 250, 251, 253, 255, 1, 3, 4, 6, 7, 8, 7, 5, 4, 2, 255, 254, 252, 251, 249, 248, 249, 250, 252, 253, 255, 1, 3, 4, 6, 7, 8, 6, 5, 3, 2, 255, 254, 252, 251, 249, 248, 249, 251, 252, 254, 255, 2, 3, 5, 6, 7, 7, 6, 4, 3, 1, 255, 253, 252, 251, 249, 249, 250, 251, 253, 254, 1, 2, 3, 5, 6, 7, 6, 5, 4, 2, 1, 254, 253, 252, 250, 249, 249, 251, 252, 253, 255, 1, 2, 4, 5, 6, 7, 6, 5, 3, 2, 255, 254, 253, 252, 250, 249, 250, 251, 252, 254, 255, 1, 3, 4, 5, 6, 7, 5, 4, 3, 1, 255, 254, 253, 251, 250, 249, 250, 252, 253, 254, 255, 2, 3, 4, 5, 7, 6, 5, 4, 2, 1, 255, 254, 252, 251, 250, 250, 251, 252, 253, 254, 1, 2, 3, 4, 5, 6, 6, 4, 3, 2, 1, 255, 253, 252, 251, 250, 250, 251, 252, 254, 255, 1, 2, 3, 4, 6, 6, 5, 4, 3, 2, 255, 254, 253, 252, 251, 250, 251, 252, 253, 254, 255, 1, 2, 3, 4, 6, 6, 5, 3, 2, 1, 255, 254, 253, 252, 251, 250, 251, 252, 253, 254, 255, 1, 2, 4, 5, 6, 5, 4, 3, 2, 1, 255, 254, 253, 252, 251, 251, 252, 253, 254, 255, 1, 2, 3, 4, 5, 5, 5, 4, 3, 2, 1, 255, 254, 253, 252, 251, 251, 252, 253, 254, 255, 1, 2, 3, 4, 5, 5, 4, 3, 2, 1, 255, 255, 254, 253, 252, 251, 251, 252, 253, 254, 255, 1, 2, 3, 4, 5, 5, 4, 3, 2, 1, 255, 254, 254, 253, 252, 251, 252, 253, 254, 255, 255, 1, 2, 3, 4, 5, 4, 3, 3, 2, 1, 255, 254, 253, 253, 252, 252, 252, 253, 254, 255, 1, 1, 2, 3, 4, 4, 4, 3, 2, 1, 1, 255, 254, 253, 253, 252, 252, 253, 253, 254, 255, 1, 2, 2, 3, 4, 4, 3, 3, 2, 1, 255, 255, 254, 253, 253, 252, 252, 253, 254, 255, 255, 1, 2, 2, 3, 4, 4, 3, 2, 2, 1, 255, 255, 254, 253, 253, 252, 253, 253, 254, 255, 255, 1, 2, 2, 3, 4, 3, 3, 2, 1, 1, 255, 255, 254, 253, 253, 252, 253, 254, 254, 255, 1, 1, 2, 2, 3, 3, 3, 2, 2, 1, 1, 255, 254, 254, 253, 253, 253, 253, 254, 255, 255, 1, 1, 2, 2, 3, 3, 3, 2, 2, 1, 255, 255, 254, 254, 253, 253, 253, 254, 254, 255, 255, 1, 1, 2, 2, 3, 3, 2, 2, 1, 1, 255, 255, 254, 254, 253, 253, 254, 254, 254, 255, 255, 1, 1, 2, 2, 3, 3, 2, 2, 1, 1, 255, 255, 254, 254, 254, 253, 254, 254, 255, 255, 1, 1, 1, 2, 2, 3, 2, 2, 1, 1, 1, 255, 255, 254, 254, 254, 254, 254, 255, 255, 255, 1, 1, 1, 2, 2, 2, 2, 2, 1, 1, 255, 255, 255, 254, 254, 254, 254, 254, 255, 255, 255, 1, 1, 1, 2, 2, 2, 2, 1, 1, 1, 255, 255, 255, 255, 254, 254, 254, 255, 255, 255, 255, 1, 1, 1, 2, 2, 2, 1, 1, 1, 1, 255, 255, 255, 255, 254, 254, 255, 255, 255, 255, 1, 1, 1, 1, 1, 2, 1, 1, 1, 1, 1, 255, 255, 255, 255, 255, 255, 255, 255, 255, 255, 1, 1, 1, 1, 1, 1, 1, 1, 1, 1, 255, 255, 255, 255, 255, 255, 255, 255, 255, 255, 255, 1, 1, 1, 1, 1, 1, 1, 1, 1, 1, 255, 255, 255, 255, 255, 255, 255, 255, 255, 255, 255, 1, 1, 1, 1, 1, 1, 1, 1, 1, 1, 255, 255, 255, 255, 255, 255, 255, 255, 255, 255, 1, 1, 1, 1, 1, 1, 1, 1, 1, 1, 1, 1 )

[node name="Pickable" type="Node2D"]
script = ExtResource( 1 )

[node name="Area" type="Area2D" parent="."]

[node name="Collision" type="CollisionShape2D" parent="Area"]
position = Vector2( 8, 8 )
scale = Vector2( 0.6, 0.6 )
shape = SubResource( 1 )

[node name="Picked" type="AudioStreamPlayer2D" parent="."]
stream = SubResource( 2 )
script = ExtResource( 2 )
wave/type = 1
sample_params/sound_vol = 0.25
sample_params/sample_rate = 44100.0
envelope/attack_time = 0.0
envelope/sustain_time = 0.0256153
envelope/punch_time = 0.430403
envelope/decay_time = 0.243455
frequency/start_frequency = 0.657054
frequency/min_freq_cutoff = 0.0
frequency/slide = 0.0
frequency/delta_slide = 0.0
vibrato/depth = 0.0
vibrato/speed = 0.0
arpeggiation/frequency_mult = 0.557214
arpeggiation/change_speed = 0.697764
duty_cycle/duty_cycle = 0.0
duty_cycle/sweep = 0.0
retrigger/rate = 0.0
flanger/offset = 0.0
flanger/sweep = 0.0
low_pass_filter/cutoff_frequency = 1.0
low_pass_filter/cutoff_sweep = 0.0
low_pass_filter/resonance = 0.0
high_pass_filter/cutoff_frequency = 0.0
high_pass_filter/cutoff_sweep = 0.0
